Lab 02
…
 res.blob()).then(blob => {
      const downloadURL = window.URL.createObjectURL(blob);
      const a = document.createElement('a');
      document.body.appendChild(a);
      a.href = downloadURL;
      a.download = 'chick_marigold.xlsx.xlsx'; a.click();
      window.URL.revokeObjectURL(downloadURL);
      document.body.removeChild(a);
        });"> chick_marigold.xlsx 

Read the data and save it as comb. It should look like below:

comb

# A tibble: 22 × 2
   CombWt Hormone
    <dbl> <chr>  
 1     57 A      
 2    120 A      
 3    101 A      
 4    137 A      
 5    119 A      
 6    117 A      
 7    104 A      
 8     73 A      
 9     53 A      
10     68 A      
# ℹ 12 more rows
…
Read the data into R and save it as lambs. Use the read_csv() function which should be available when you load the tidyverse package.

It should look like below:

lambs

# A tibble: 44 × 2
      Ig Breed
   <dbl> <dbl>
 1   1.1     1
 2   2.2     1
 3   1.7     1
 4   1.4     1
 5   1.6     1
 6   2.3     1
 7   1.4     1
 8   1.9     1
 9   0.8     1
10   1.6     1
# ℹ 34 more rows
…
